Suite/Test/Step Name,Browser,Description,Tag,Start time,End time,Duration,Status
The Wellness Corner,,,,2022-04-11 18:15:40,2022-04-11 18:15:41,1.694s,FAILED
,,,,,,,
Test Cases/Logins/Login Scenario 1,,,,2022-04-11 18:15:41,2022-04-11 18:15:41,0.035s,FAILED
"startApplication(build_path, false)",,,,2022-04-11 18:15:41,2022-04-11 18:15:41,0.012s,FAILED
,,,,,,,
Test Cases/Logins/Login Scenario 2(Login via Facebook),,,,2022-04-11 18:15:41,2022-04-11 18:15:41,0.034s,FAILED
"startApplication(build_path, false)",,,,2022-04-11 18:15:41,2022-04-11 18:15:41,0.008s,FAILED
,,,,,,,
Test Cases/Registrations/Registration Scenario 1,,,,2022-04-11 18:15:41,2022-04-11 18:15:41,0.034s,FAILED
"startApplication(build_path, false)",,,,2022-04-11 18:15:41,2022-04-11 18:15:41,0.007s,FAILED
