Suite/Test/Step Name,Browser,Description,Tag,Start time,End time,Duration,Status
The Wellness Corner,,,,2021-11-30 10:43:34,2021-11-30 10:45:57,2m - 22.228s,FAILED
,,,,,,,
Test Cases/Logins/Login Scenario 1,,,,2021-11-30 10:43:35,2021-11-30 10:45:57,2m - 21.768s,FAILED
"startApplication(build_path, false)",,,,2021-11-30 10:43:36,2021-11-30 10:43:59,23.306s,PASSED
delay(40),,,,2021-11-30 10:43:59,2021-11-30 10:44:39,40.187s,PASSED
log = new com.kms.katalon.core.logging.KeywordLogger(),,,,2021-11-30 10:44:39,2021-11-30 10:44:39,0.001s,PASSED
"tap(findTestObject(""Enter email tab""), 120)",,,,2021-11-30 10:44:39,2021-11-30 10:44:53,13.553s,PASSED
"setText(findTestObject(""Enter your email""), Useremail, 10)",,,,2021-11-30 10:44:53,2021-11-30 10:44:55,2.889s,PASSED
"tap(findTestObject(""Continue""), 10)",,,,2021-11-30 10:44:55,2021-11-30 10:44:57,1.333s,PASSED
"setText(findTestObject(""Enter password""), password, 10)",,,,2021-11-30 10:44:57,2021-11-30 10:45:04,7.102s,PASSED
"tap(findTestObject(""Continue button""), 30)",,,,2021-11-30 10:45:04,2021-11-30 10:45:05,1.266s,PASSED
delay(3),,,,2021-11-30 10:45:05,2021-11-30 10:45:08,3.029s,PASSED
"tap(findTestObject(""Hamburger menu""), 30)",,,,2021-11-30 10:45:08,2021-11-30 10:45:19,10.444s,PASSED
delay(5),,,,2021-11-30 10:45:19,2021-11-30 10:45:24,5.014s,PASSED
"actualemail = getText(findTestObject(""Registration/Email address sidemenu""), 30)",,,,2021-11-30 10:45:24,2021-11-30 10:45:27,3.721s,PASSED
delay(5),,,,2021-11-30 10:45:27,2021-11-30 10:45:32,5.007s,PASSED
if (Useremail != actualemail),,,,2021-11-30 10:45:32,2021-11-30 10:45:32,0.002s,PASSED
else,,,,2021-11-30 10:45:32,2021-11-30 10:45:57,24.175s,FAILED
