Suite/Test/Step Name,Browser,Description,Tag,Start time,End time,Duration,Status
The Wellness Corner,,,,2021-11-29 18:29:05,2021-11-29 18:31:02,1m - 56.919s,PASSED
,,,,,,,
Test Cases/Logins/Login Scenario 1,,,,2021-11-29 18:29:05,2021-11-29 18:31:02,1m - 56.512s,PASSED
"startApplication(build_path, false)",,,,2021-11-29 18:29:06,2021-11-29 18:29:29,22.681s,PASSED
delay(40),,,,2021-11-29 18:29:29,2021-11-29 18:30:09,40.069s,PASSED
log = new com.kms.katalon.core.logging.KeywordLogger(),,,,2021-11-29 18:30:09,2021-11-29 18:30:09,0.001s,PASSED
"tap(findTestObject(""Enter email tab""), 120)",,,,2021-11-29 18:30:09,2021-11-29 18:30:10,1.681s,PASSED
"setText(findTestObject(""Enter your email""), Useremail, 10)",,,,2021-11-29 18:30:10,2021-11-29 18:30:13,3.041s,PASSED
"tap(findTestObject(""Continue""), 10)",,,,2021-11-29 18:30:13,2021-11-29 18:30:15,1.312s,PASSED
"setText(findTestObject(""Enter password""), password, 10)",,,,2021-11-29 18:30:15,2021-11-29 18:30:19,4.338s,PASSED
"tap(findTestObject(""Continue button""), 30)",,,,2021-11-29 18:30:19,2021-11-29 18:30:20,1.270s,PASSED
delay(3),,,,2021-11-29 18:30:20,2021-11-29 18:30:23,3.005s,PASSED
"tap(findTestObject(""Hamburger menu""), 30)",,,,2021-11-29 18:30:23,2021-11-29 18:30:31,7.831s,PASSED
delay(5),,,,2021-11-29 18:30:31,2021-11-29 18:30:36,5.005s,PASSED
"actualemail = getText(findTestObject(""Registration/Email address sidemenu""), 30)",,,,2021-11-29 18:30:36,2021-11-29 18:30:38,1.596s,PASSED
if (Useremail != actualemail),,,,2021-11-29 18:30:38,2021-11-29 18:30:38,0.008s,PASSED
"scrollToText(""Log Out"")",,,,2021-11-29 18:30:38,2021-11-29 18:30:49,11.643s,PASSED
"tap(findTestObject(""Log Out""), 10)",,,,2021-11-29 18:30:49,2021-11-29 18:30:51,1.335s,PASSED
delay(10),,,,2021-11-29 18:30:51,2021-11-29 18:31:01,10.004s,PASSED
closeApplication(),,,,2021-11-29 18:31:01,2021-11-29 18:31:02,1.058s,PASSED
